{"links":{"first":"https://www.ebi.ac.uk/metagenomics/api/v1/biomes/root:Environmental:Aquatic:Marine:Intertidal%20zone:Coral%20reef/samples?page=1","last":"https://www.ebi.ac.uk/metagenomics/api/v1/biomes/root:Environmental:Aquatic:Marine:Intertidal%20zone:Coral%20reef/samples?page=29","next":null,"prev":"https://www.ebi.ac.uk/metagenomics/api/v1/biomes/root:Environmental:Aquatic:Marine:Intertidal%20zone:Coral%20reef/samples?page=28"},"data":[{"type":"samples","id":"ERS1100504","attributes":{"sample-metadata":[{"key":"investigation type","value":"mimarks-survey","unit":null},{"key":"project name","value":"Coral Metagenomes","unit":null},{"key":"collection date","value":"2014-06-17","unit":null},{"key":"environmental package","value":"host-associated","unit":null},{"key":"sequencing method","value":"Illumina","unit":null},{"key":"host common name","value":"Coral","unit":null},{"key":"NCBI sample classification","value":"1502934","unit":null},{"key":"instrument model","value":"Illumina HiSeq 2500","unit":null},{"key":"ENA checklist","value":"GSC MIxS host associated (ERC000013)","unit":null}],"latitude":null,"biosample":"SAMEA3913370","longitude":null,"accession":"ERS1100504","analysis-completed":"2016-04-15","collection-date":null,"geo-loc-name":"Portugal","sample-desc":"Comparative metagenomics of microbial communities in gorgonian corals, marine sediments and seawater","environment-biome":"Ocean","environment-feature":"Coastal water body","environment-material":"Sea water","sample-name":"Microbial metagenomics of soft corals","sample-alias":"LS08-H","host-tax-id":null,"species":null,"last-update":"2016-04-15T14:48:32"},"relationships":{"studies":{"links":{"related":"https://www.ebi.ac.uk/metagenomics/api/v1/samples/ERS1100504/studies"},"data":[{"type":"studies","id":"MGYS00000711","links":{"self":"https://www.ebi.ac.uk/metagenomics/api/v1/studies/MGYS00000711"}}],"meta":{"count":1}},"biome":{"data":{"type":"biomes","id":"root:Environmental:Aquatic:Marine:Intertidal zone:Coral reef"},"links":{"related":"https://www.ebi.ac.uk/metagenomics/api/v1/biomes/root:Environmental:Aquatic:Marine:Intertidal%20zone:Coral%20reef"}},"runs":{"links":{"related":"https://www.ebi.ac.uk/metagenomics/api/v1/samples/ERS1100504/runs"}}},"links":{"self":"https://www.ebi.ac.uk/metagenomics/api/v1/samples/ERS1100504"}},{"type":"samples","id":"ERS1100505","attributes":{"sample-metadata":[{"key":"investigation type","value":"mimarks-survey","unit":null},{"key":"project name","value":"Coral Metagenomes","unit":null},{"key":"collection date","value":"2014-06-17","unit":null},{"key":"environmental package","value":"host-associated","unit":null},{"key":"sequencing method","value":"Illumina","unit":null},{"key":"host common name","value":"Coral","unit":null},{"key":"NCBI sample classification","value":"749907","unit":null},{"key":"instrument model","value":"Illumina HiSeq 2500","unit":null},{"key":"ENA checklist","value":"GSC MIxS host associated (ERC000013)","unit":null}],"latitude":null,"biosample":"SAMEA3913371","longitude":null,"accession":"ERS1100505","analysis-completed":"2016-04-15","collection-date":null,"geo-loc-name":"Portugal","sample-desc":"Comparative metagenomics of microbial communities in gorgonian corals, marine sediments and seawater","environment-biome":"Ocean","environment-feature":"Coastal water body","environment-material":"Sea water","sample-name":"Microbial metagenomics of soft corals","sample-alias":"120114TKC-SD01","host-tax-id":null,"species":null,"last-update":"2016-04-15T14:48:32"},"relationships":{"studies":{"links":{"related":"https://www.ebi.ac.uk/metagenomics/api/v1/samples/ERS1100505/studies"},"data":[{"type":"studies","id":"MGYS00000711","links":{"self":"https://www.ebi.ac.uk/metagenomics/api/v1/studies/MGYS00000711"}}],"meta":{"count":1}},"biome":{"data":{"type":"biomes","id":"root:Environmental:Aquatic:Marine:Intertidal zone:Coral reef"},"links":{"related":"https://www.ebi.ac.uk/metagenomics/api/v1/biomes/root:Environmental:Aquatic:Marine:Intertidal%20zone:Coral%20reef"}},"runs":{"links":{"related":"https://www.ebi.ac.uk/metagenomics/api/v1/samples/ERS1100505/runs"}}},"links":{"self":"https://www.ebi.ac.uk/metagenomics/api/v1/samples/ERS1100505"}},{"type":"samples","id":"ERS1100506","attributes":{"sample-metadata":[{"key":"investigation type","value":"mimarks-survey","unit":null},{"key":"project name","value":"Coral Metagenomes","unit":null},{"key":"collection date","value":"2014-06-17","unit":null},{"key":"environmental package","value":"host-associated","unit":null},{"key":"sequencing method","value":"Illumina","unit":null},{"key":"host common name","value":"Coral","unit":null},{"key":"NCBI sample classification","value":"749907","unit":null},{"key":"instrument model","value":"Illumina HiSeq 2500","unit":null},{"key":"ENA checklist","value":"GSC MIxS host associated (ERC000013)","unit":null}],"latitude":null,"biosample":"SAMEA3913372","longitude":null,"accession":"ERS1100506","analysis-completed":"2016-04-15","collection-date":null,"geo-loc-name":"Portugal","sample-desc":"Comparative metagenomics of microbial communities in gorgonian corals, marine sediments and seawater","environment-biome":"Ocean","environment-feature":"Coastal water body","environment-material":"Sea water","sample-name":"Microbial metagenomics of soft corals","sample-alias":"120114TKC-SD02","host-tax-id":null,"species":null,"last-update":"2016-04-15T14:48:32"},"relationships":{"studies":{"links":{"related":"https://www.ebi.ac.uk/metagenomics/api/v1/samples/ERS1100506/studies"},"data":[{"type":"studies","id":"MGYS00000711","links":{"self":"https://www.ebi.ac.uk/metagenomics/api/v1/studies/MGYS00000711"}}],"meta":{"count":1}},"biome":{"data":{"type":"biomes","id":"root:Environmental:Aquatic:Marine:Intertidal zone:Coral reef"},"links":{"related":"https://www.ebi.ac.uk/metagenomics/api/v1/biomes/root:Environmental:Aquatic:Marine:Intertidal%20zone:Coral%20reef"}},"runs":{"links":{"related":"https://www.ebi.ac.uk/metagenomics/api/v1/samples/ERS1100506/runs"}}},"links":{"self":"https://www.ebi.ac.uk/metagenomics/api/v1/samples/ERS1100506"}},{"type":"samples","id":"ERS1100507","attributes":{"sample-metadata":[{"key":"investigation type","value":"mimarks-survey","unit":null},{"key":"project name","value":"Coral Metagenomes","unit":null},{"key":"collection date","value":"2014-06-17","unit":null},{"key":"environmental package","value":"host-associated","unit":null},{"key":"sequencing method","value":"Illumina","unit":null},{"key":"host common name","value":"Coral","unit":null},{"key":"NCBI sample classification","value":"749907","unit":null},{"key":"instrument model","value":"Illumina HiSeq 2500","unit":null},{"key":"ENA checklist","value":"GSC MIxS host associated (ERC000013)","unit":null}],"latitude":null,"biosample":"SAMEA3913373","longitude":null,"accession":"ERS1100507","analysis-completed":"2016-04-15","collection-date":null,"geo-loc-name":"Portugal","sample-desc":"Comparative metagenomics of microbial communities in gorgonian corals, marine sediments and seawater","environment-biome":"Ocean","environment-feature":"Coastal water body","environment-material":"Sea water","sample-name":"Microbial metagenomics of soft corals","sample-alias":"120114TKC-SD03","host-tax-id":null,"species":null,"last-update":"2016-04-15T14:48:32"},"relationships":{"studies":{"links":{"related":"https://www.ebi.ac.uk/metagenomics/api/v1/samples/ERS1100507/studies"},"data":[{"type":"studies","id":"MGYS00000711","links":{"self":"https://www.ebi.ac.uk/metagenomics/api/v1/studies/MGYS00000711"}}],"meta":{"count":1}},"biome":{"data":{"type":"biomes","id":"root:Environmental:Aquatic:Marine:Intertidal zone:Coral reef"},"links":{"related":"https://www.ebi.ac.uk/metagenomics/api/v1/biomes/root:Environmental:Aquatic:Marine:Intertidal%20zone:Coral%20reef"}},"runs":{"links":{"related":"https://www.ebi.ac.uk/metagenomics/api/v1/samples/ERS1100507/runs"}}},"links":{"self":"https://www.ebi.ac.uk/metagenomics/api/v1/samples/ERS1100507"}},{"type":"samples","id":"ERS1100510","attributes":{"sample-metadata":[{"key":"investigation type","value":"mimarks-survey","unit":null},{"key":"project name","value":"Coral Metagenomes","unit":null},{"key":"collection date","value":"2014-06-17","unit":null},{"key":"environmental package","value":"host-associated","unit":null},{"key":"sequencing method","value":"Illumina","unit":null},{"key":"host common name","value":"Coral","unit":null},{"key":"NCBI sample classification","value":"1561972","unit":null},{"key":"instrument model","value":"Illumina HiSeq 2500","unit":null},{"key":"ENA checklist","value":"GSC MIxS host associated (ERC000013)","unit":null}],"latitude":null,"biosample":"SAMEA3913376","longitude":null,"accession":"ERS1100510","analysis-completed":"2016-04-15","collection-date":null,"geo-loc-name":"Portugal","sample-desc":"Comparative metagenomics of microbial communities in gorgonian corals, marine sediments and seawater","environment-biome":"Ocean","environment-feature":"Coastal water body","environment-material":"Sea water","sample-name":"Microbial metagenomics of soft corals","sample-alias":"120114TKC-SW03","host-tax-id":null,"species":null,"last-update":"2016-04-15T14:48:32"},"relationships":{"studies":{"links":{"related":"https://www.ebi.ac.uk/metagenomics/api/v1/samples/ERS1100510/studies"},"data":[{"type":"studies","id":"MGYS00000711","links":{"self":"https://www.ebi.ac.uk/metagenomics/api/v1/studies/MGYS00000711"}}],"meta":{"count":1}},"biome":{"data":{"type":"biomes","id":"root:Environmental:Aquatic:Marine:Intertidal zone:Coral reef"},"links":{"related":"https://www.ebi.ac.uk/metagenomics/api/v1/biomes/root:Environmental:Aquatic:Marine:Intertidal%20zone:Coral%20reef"}},"runs":{"links":{"related":"https://www.ebi.ac.uk/metagenomics/api/v1/samples/ERS1100510/runs"}}},"links":{"self":"https://www.ebi.ac.uk/metagenomics/api/v1/samples/ERS1100510"}},{"type":"samples","id":"ERS1014200","attributes":{"sample-metadata":[{"key":"investigation type","value":"metagenome","unit":null},{"key":"project name","value":"Acopora virome from Heron Island","unit":null},{"key":"collection date","value":"2011-03","unit":null},{"key":"environmental package","value":"host-associated","unit":null},{"key":"sequencing method","value":"illumina","unit":null},{"key":"NCBI sample classification","value":"140238","unit":null},{"key":"instrument model","value":"Illumina MiSeq","unit":null},{"key":"ENA checklist","value":"GSC MIxS host associated (ERC000013)","unit":null}],"latitude":-23.4422,"biosample":"SAMEA3707051","longitude":151.9134,"accession":"ERS1014200","analysis-completed":"2016-01-08","collection-date":null,"geo-loc-name":"Australia","sample-desc":"Acopora virome","environment-biome":"coral reef","environment-feature":"tidal flat","environment-material":"tissue","sample-name":"atypical herpes-like viruses and a new Megavirus infecting Symbiodinium","sample-alias":"lane1-s009-indexN708-S504-CAGAGAGG-AGAGTAGA-CI-Nex_S9_L0011","host-tax-id":140238,"species":"Acropora aspera","last-update":"2016-02-03T10:09:42"},"relationships":{"studies":{"links":{"related":"https://www.ebi.ac.uk/metagenomics/api/v1/samples/ERS1014200/studies"},"data":[{"type":"studies","id":"MGYS00000590","links":{"self":"https://www.ebi.ac.uk/metagenomics/api/v1/studies/MGYS00000590"}}],"meta":{"count":1}},"biome":{"data":{"type":"biomes","id":"root:Environmental:Aquatic:Marine:Intertidal zone:Coral reef"},"links":{"related":"https://www.ebi.ac.uk/metagenomics/api/v1/biomes/root:Environmental:Aquatic:Marine:Intertidal%20zone:Coral%20reef"}},"runs":{"links":{"related":"https://www.ebi.ac.uk/metagenomics/api/v1/samples/ERS1014200/runs"}}},"links":{"self":"https://www.ebi.ac.uk/metagenomics/api/v1/samples/ERS1014200"}}],"meta":{"pagination":{"page":29,"pages":29,"count":706}}}